{
  "description": "A custom input area optimized for the Modified Rhyme test (MRT). There should be six choices.",
  "allOf": [
    {"$ref": "/response-areas/definitions/commonResponseAreaProperties.json"},
    {
      "properties": {
        "type": {
          "enum": [ "mrtResponseArea" ]
        },
        "choices": {
          "type": "array",
          "minItems": 6,
          "maxItems": 6,
          "items": {
            "$ref": "/response-areas/definitions/choice.json"
          }
        },
        "verticalSpacing": {
          "type": "integer",
          "description": "Vertical spacing between buttons, given in [px]"
        },
        "horizontalSpacing": {
          "type": "integer",
          "description": "Horizontal spacing between buttons, given in [px]"
        },
        "feedback": {
          "type": "string",
          "enum": [
            "gradeResponse",
            "showCorrect"
          ],
          "description": "Provide feedback after submit.  'gradeResponse' will mark answers correct/incorrect(green/red).  'showCorrect' will grade AND show the correct choices."
        }
      }
    }
  ]
}