{
  "title": "Demonstration Protocol",
  "subtitle": "Questionnaire and Response Areas",
  "helpText": "Demo Help Text",
  "js": ["customJs.js"],
  "enableBackButton": true,
  "resultFilename": " 'FeatureDemo-' + (examResults.subjectId || 'none') ",
  "minTabsintVersion": "1.8.0",
  "calibration": [
    {
      "wavfiles": [
          "chirpFullAsRec.wav"
      ]
    }
    ],
    "navMenu":[
    {
      "text": "Back to Main Menu",
      "target": {
        "reference": "MainMenu"
      },
      "returnHereAfterward": false
    }
  ],
  "pages": [
    {
      "protocolId":"MainMenu",
      "title":"main menu",
      "pages":[
        {
          "id":"choose",
          "title":"Feature Demo",
          "questionMainText":"Please select a survey",
          "hideProgressBar":true,
          "responseArea":{
            "type":"multipleChoiceResponseArea",
            "choices":[
              {
                "id":"Questionnaire"
              },
              {
                "id":"Adaptive Questions"
              },
              {
                "id":"Audio Questions"
              },
              {
                "id":"Advanced Features"
              },
              {
                "id":"Finish and Submit"
              }
            ]
          },

          "followOns":[
            {
              "conditional":"result.response=='Questionnaire'",
              "target":{
                "reference":"Questionnaire"
              }
            },
            {
              "conditional":"result.response=='Adaptive Questions'",
              "target":{
                "reference":"AdaptiveQuestions"
              }
            },
            {
              "conditional":"result.response=='Audio Questions'",
              "target":{
                "reference":"AudioQuestions"
              }
            },
            {
              "conditional":"result.response=='Advanced Features'",
              "target":{
                "reference":"AdvancedFeatures"
              }
            },
            {
              "conditional":"result.response=='Finish and Submit'",
              "target":{
                "reference":"@END_ALL"
              }
            }
          ]
        }
      ]
    }
  ],
  "subProtocols":[
    {
      "protocolId":"@PARTIAL",
      "pages":[
        {
          "id":"partial001",
          "questionMainText":"This should only be shown if a partial exam is submitted.",
          "responseArea":{
            "type":"yesNoResponseArea"
          }
        },
        {
          "id":"partial002",
          "questionMainText":"This should happen next, and then it should submit.",
          "responseArea":{
            "type":"yesNoResponseArea"
          }
        }
      ]
    },
    {
      "protocolId": "Questionnaire",
      "title":"Questionnaire",
      "pages":[
        {
          "id": "subjectId",
          "title": "Subject Id Input",
          "questionMainText": "Enter the Subject ID",
          "questionSubText": "",
          "responseArea": {
            "type": "subjectIdResponseArea",
            "generate": true
          }
        },
        {
          "id": "multiline",
          "title": "Multiple Input Response Area",
          "questionMainText": "Enter the values associated with this test",
          "responseArea": {
            "type": "multipleInputResponseArea",
            "verticalSpacing": 15,
            "textAlign": "left",
            "inputList":[
              {
                "text": "Subject Age"
              },
              {
                "text": "Subject Id"
              },
              {
                "text": "Test Location"
              },
              {
                "text": "Administrator Name"
              },
              {
                "inputType": "number",
                "text": "Numerical Input"
              },
              {
                "inputType": "dropdown",
                "options": [1,2,3,4,5,6,7,8,9],
                "text": "Dropdown Input"
              },
              {
                "text": "Other important values"
              },
              {
                "inputType": "dropdown",
                "options": [1,2,3,4,5,6,7,8,9],
                "text": "....."
              }
            ]
          }
        },
        {
          "id": "textbox",
          "title": "Text Box Input",
          "questionMainText": "Enter arbitrary text",
          "responseArea": {
            "type": "textboxResponseArea",
            "rows": 5
          }
        },
        {
          "id": "qr001",
          "title": "QR Code Support",
          "questionMainText": "Please scan in the appropriate QR code.",
          "questionSubText": "QR input can be set to mandatory, or can be set to allow the user to continue without scanning a QR code.",
          "responseArea": {
            "type": "qrResponseArea",
            "responseRequired": false
          }
        },
        {
          "id":"info002",
          "questionMainText":"General Text Page",
          "questionSubText":"Section 1 of 2",
          "instructionText":"Please answer all questions as accurately as possible."
        },
        {
          "id":"multichoice001",
          "questionMainText":"Which category best describes the operational environment you usually work in:",
          "responseArea":{
            "type":"multipleChoiceResponseArea",
            "choices":[
              {
                "id":"Dismounted combat arms (infantry, rifleman)",
                "correct": true
              },
              {
                "id":"Mounted combat arms (armor)"
              },
              {
                "id":"Military Police"
              },
              {
                "id":"Aviation (flight crew)"
              },
              {
                "id":"Aviation (maintenance)"
              },
              {
                "id":"Command and Control (ATC)"
              },
              {
                "id":"Naval (surface or submarine)"
              },
              {
                "id":"Support (logistics, medical, etc.)"
              }
            ]
          }
              },
              {
          "id":"integer001",
          "questionMainText":"How many times have you been deployed to Iraq or Afghanistan?",
          "questionSubText":"This question has a follow on question if the response is greater than 0",
          "responseArea":{
            "type":"integerResponseArea"
              },
          "followOns":[
              {
              "conditional":"result.response>0",
              "target":{
                "id":"question3a",
                "questionMainText":"Were you ever close enough to an explosive blast to feel the heat or pressure wave?",
                "questionSubText":"This question has a follow on question if the response is \"yes\"",
                "responseArea":{
                  "type":"yesNoResponseArea"
              },
                "followOns":[
              {
                    "conditional":"result.response=='yes'",
                    "target":{
                      "id":"question3b",
                      "questionMainText":"How many times?",
                      "responseArea":{
                        "type":"integerResponseArea"
                      }
                    }
              }
            ]
          }
            }
          ]
        },
        {
          "id": "seesaw001",
          "title": "Weighing Options",
          "questionMainText": "Protection vs. Distortion",
          "responseArea": {
            "type": "seeSawResponseArea",
            "responseRequired": true,
            "leftHeader": "How well my HPD protects me from loud impulse sounds like gunfire or explosions",
            "rightHeader": "How natural my own voice sounds while talking when wearing my HPD",
            "leftLabels": [
              "Much less protection from loud impulse sounds",
              "Somewhat less protection from loud impulse sounds",
              "No change",
              "Somewhat more protection from loud impulse sounds",
              "Much more protection from loud impulse sounds"
            ],
            "rightLabels":[
              "Much more distortion of my voice",
              "Somewhat more distortion of my voice",
              "No change",
              "Somewhat more natural sound of my voice",
              "Much more natural sound of my voice"
            ]
          }
        },
        {
          "id": "likert001",
          "questionMainText": "It was easy for the person to put the headset on me.",
          "responseArea": {
            "type": "likertResponseArea",
            "levels": 5,
            "useEmoticons": true,
            "specifiers": [
              {
                "level": 0,
                "label": "Strongly Disagree"
              },
              {
                "level": 1,
                "label": "Disagree"

              },
              {
                "level": 2,
                "label": "No Opinion"
              },
              {
                "level": 3,
                "label": "Agree"

              },
              {
                "level": 4,
                "label": "Strongly Agree"
              }
            ]
          }
        },
                {
      "id": "multilikert001",
      "responseArea": {
        "type": "likertResponseArea",
        "questions": [
          {
            "questionMainText": "Did you have any trouble hearing soft sounds before being exposed to noise?",
            "levels": 11,
            "labelFontSize": 20,
            "specifiers": [
              {
                "level": 0,
                "label": "No trouble",
                "position": "below"
              },
              {
                "level": 0,
                "label": "0",
                "position": "above"
              },
              {
                "level": 1,
                "label": "1"
              },
              {
                "level": 2,
                "label": "2"
              },
              {
                "level": 3,
                "label": "3"
              },
              {
                "level": 4,
                "label": "4"
              },
              {
                "level": 5,
                "label": "5"
              },
              {
                "level": 6,
                "label": "6"
              },
              {
                "level": 7,
                "label": "7"
              },
              {
                "level": 8,
                "label": "8"
              },
              {
                "level": 9,
                "label": "9"
              },
              {
                "level": 10,
                "label": "Great deal of trouble",
                "position": "below"
              },
              {
                "level": 10,
                "label": "10",
                "position": "above"
              }
            ]
          },
          {
            "questionMainText": "Do you have any trouble hearing soft sounds RIGHT NOW",
            "levels": 11,
            "labelFontSize": 15,
            "specifiers": [
              {
                "level": 0,
                "label": "No trouble",
                "position": "below"
              },
              {
                "level": 0,
                "label": "0",
                "position": "above"
              },
              {
                "level": 1,
                "label": "1"
              },
              {
                "level": 2,
                "label": "2"
              },
              {
                "level": 3,
                "label": "3"
              },
              {
                "level": 4,
                "label": "4"
              },
              {
                "level": 5,
                "label": "5"
              },
              {
                "level": 6,
                "label": "6"
              },
              {
                "level": 7,
                "label": "7"
              },
              {
                "level": 8,
                "label": "8"
              },
              {
                "level": 9,
                "label": "9"
              },
              {
                "level": 10,
                "label": "Great deal of trouble",
                "position": "below"
              },
              {
                "level": 10,
                "label": "10",
                "position": "above"
              }
            ]
          }
        ]
      }
    },
        {
          "id": "finishOrGoBack",
          "title": "finish choice",
          "questionMainText": "Finish and submit exam or go back to Main Menu?",
          "responseArea":{
            "type":"multipleChoiceResponseArea",
            "choices":[
              {
                "id":"Finish Exam"
              },
              {
                "id":"Back to Main Menu"
              }
            ]
          },
          "followOns":[
            {
              "conditional":"result.response=='Back to Main Menu'",
              "target":{
                "reference":"MainMenu"
              }
            }
          ]
        }
      ]
    },
    {
      "protocolId": "AdaptiveQuestions",
      "title": "Adaptive Logic Questions",
      "pages":[
        {
          "id":"repeat01",
          "title":"Multiple Choice With Repeats",
          "questionMainText": "Repeated questions",
          "instructionText":"The question will repeat up to 2 times if you choose 'A'. The question will not repeat if you choose 'B'",
          "responseArea":{
            "type":"multipleChoiceResponseArea",
            "choices":[
              {
                "id":"A",
                "text":"Choice A"
              },
              {
                "id":"B",
                "text":"Choice B"
              }
            ]
          },
          "repeatPage":{
            "nRepeats":2,
            "repeatIf":"result.response!=='B'"
          }
        },
        {
          "id": "custom001",
          "title": "Custom HTML and JS",
          "questionMainText": "Custom Response Area",
          "responseArea": {
            "type": "customResponseArea",
            "html": "customHtml.html"
          }
        },
        {
          "id":"preprocess",
          "title":"Preprocessing Functions",
          "questionMainText":"Preprocessing Functions",
          "questionSubText":"You can run a pre-processing function on the test data before loading a page",
          "instructionText":"",
          "preProcessFunction": "preprocessExample"
        },
        {
          "id":"multichoice001",
          "title":"Progress Bar",
          "instructionText":"You can change the progress bar using pre-processing functions. Your response here will set the progress bar on the next page.",
          "responseArea":{
            "type":"multipleChoiceResponseArea",
            "choices":[
              {
                "id":"A",
                "text":"make it a fraction string"
              },
              {
                "id":"B",
                "text":"Jump to 80%"
              }
            ]
					}
				},
        {
          "id":"multichoice002",
          "title":"Progress Bar",
          "instructionText":"The progress bar should have changed to your choice",
          "preProcessFunction": "multichoice002"
        },
        {
          "id": "finishOrGoBack",
          "title": "finish choice",
          "questionMainText": "Finish and submit exam or go back to Main Menu?",
          "responseArea":{
            "type":"multipleChoiceResponseArea",
            "choices":[
              {
                "id":"Finish Exam"
              },
              {
                "id":"Back to Main Menu"
              }
            ]
          },
          "followOns":[
            {
              "conditional":"result.response=='Back to Main Menu'",
              "target":{
                "reference":"MainMenu"
              }
            }
          ]
        }
      ]
    },
    {
      "protocolId": "AudioQuestions",
      "title":"Questions with Audio",
      "pages":[
        {
          "id":"mrt01",
          "title": "MRT Response Area",
          "questionMainText":"MRT Response Area",
          "questionSubText":"Please identify which of these six words was spoken by the talker.  The correct word is 'meat'",
          "slm": {
            "microphone": "internal"
          },
          "responseArea":{
            "type":"mrtResponseArea",
            "choices":[
              {
                "id":"meat",
                "correct":true
              },
              {
                "id":"seat"
              },
              {
                "id":"feat"
              },
              {
                "id":"beat"
              },
              {
                "id":"heat"
              },
              {
                "id":"neat"
              }
            ]
          }
        },
        {
          "id": "multipleChoiceSelection",
          "title": "Multiple Choice Selection",
          "questionMainText": "Multiple Choice Selection",
          "responseArea": {
            "type": "multipleChoiceSelectionResponseArea",
            "rows": [["test", "test", "test"], ["three", "three", "three"], ["and", "four", "rows"], ["long", "for", "testing"]],
            "columnLabels": ["My"," Column", "Labels"],
            "correct": "test four testing",
            "feedback": "showCorrect"
          }
        },
        {
          "id": "omt001",
          "title": "OMT Response Area",
          "questionMainText": "OMT Response Area",
          "questionSubText": "This version will not show correct answers",
          "responseArea": {
            "type": "omtResponseArea",
            "correct": "Alan bought some big beds."
          }
        },
        {
          "id": "omt001",
          "title": "OMT Response Area",
          "questionMainText": "OMT Response Area",
          "questionSubText": "This version will show the correct responses <br> The correct phrase is: 'Alan bought some big beds'",
          "responseArea": {
            "type": "omtResponseArea",
            "correct": "Alan bought some big beds.",
						"feedback": "showCorrect"
          }
        },
        {
          "id": "quicksin",
          "questionMainText": "QuickSIN Example",
          "questionSubText": "Select INCORRECT words.",
          "responseArea": {
            "type": "checkboxResponseArea",
            "buttonScheme": "markIncorrect",
            "choices": [
              {
                "id": "WHITE"
              },
              {
                "id": "SILK"
              },
              {
                "id": "JACKET"
              },
              {
                "id": "ANY"
              },
              {
                "id": "SHOES"
              }
            ],
            "verticalSpacing": 20
          },
          "submitText": "Next"
        },
        {
          "id": "finishOrGoBack",
          "title": "finish choice",
          "questionMainText": "Finish and submit exam or go back to Main Menu?",
          "responseArea":{
            "type":"multipleChoiceResponseArea",
            "choices":[
              {
                "id":"Finish Exam"
              },
              {
                "id":"Back to Main Menu"
              }
            ]
          },
          "followOns":[
            {
              "conditional":"result.response=='Back to Main Menu'",
              "target":{
                "reference":"MainMenu"
              }
            }
          ]
        }
      ]
    },
    {
      "protocolId": "AdvancedFeatures",
      "title":"Advanced Features",
      "pages":[
        {
          "id":"externalAppResponseArea",
          "title":"Launch Unity Game",
          "questionMainText": "Start Fetch with Configuration Settings",
          "instructionText": "TabSINT can open external Android apps configured to communicate with TabSINT",
          "responseArea":{ 
            "type": "externalAppResponseArea", 
            "appName": "com.creare.fetch",
            "dataOut": {
              "message": "These are configuration settings from TabSINT.",
              "data": "{\"MostDifficultLevel\":20,\"MinBikeSpeed\":6,\"MaxBikeSpeed\":8,\"MaxTailSpeed\":8.5,\"EasiestSnrDb\":6,\"HardestSnrDb\":-20,\"MinAmbientVol\":0.2,\"MaxAmbientVol\":0.5,\"MinLevelLengthTurns\":15,\"MaxLevelLengthTurns\":30}"
            }
          }
        }
      ]
    }
  ]
}


