{
  "description": "CHA - CRM Test",
  "properties": {
    "type": {
      "enum": ["chaCRM"]
    },
    "skip": {
      "type": "boolean",
      "description": "Allows user to skip the response area",
      "default": false
    },
    "autoSubmit": {
      "type": "boolean",
      "description": "Go straight to next page once this page is complete",
      "default": false

    },
    "autoBegin": {
      "type": "boolean",
      "description": "Go straight into exam, without having to press the 'Begin' button",
      "default": false
    },
    "feedback": {
      "type": "boolean",
      "description": "Shows the correct result after the subject responds or after the maximum time to wait for the user response is reached.",
      "default": true
    },
    "examInstructions": {
      "type": "string",
      "description": "Replaces the top-level instruction text on the CHA exam pages (each page after starting page)"
    },
    "verticalSpacing": {
      "type": "integer",
      "description": "Vertical spacing between buttons, given in [px]",
      "default": 30
    },
    "horizontalSpacing": {
      "type": "integer",
      "description": "Horizontal spacing between buttons, given in [px]",
      "default": 10
    },
    "measureBackground": {
      "type": "string",
      "description": "Select a method from the list below to measure background noise after an audiometry exam",
      "enum": ["ThirdOctaveBands"]
    },
    "examProperties": {
      "type": "object",
      "properties": {
        "ConditionPresentations": {
          "type": "array",
          "description": "A tuple of the condition and the number of presentations of that condition to present, interleaved, for each condition to present. (condition, N presentations) ",
          "default": {"1": 5}
        },
        "Level": {
          "type": "number",
          "description": "SPL to play the presentations (dB SPL). The raw wav files have really low amplitude. In WHF’s current implementation (22 January 2013), the wav files are scaled by a factor of 16 before playback. This gets them in the range of close to +/- 1.0, which is good, but still does not account for the relatively low ratio of peak level to RMS level. It turns out that 20*log10(RMS(CRM)*16/0.707) is still -15 dB. So, in addition to multiplying the raw wav by 16, we also need to add 15 dB to the requested level (e.g., user requests 65 dB, the CHA interprets that as 80 dB).",
          "default": 80,
          "maximum": 115,
          "minimum": 0
        },
        "UseMcl": {
          "type": "boolean",
          "description": "If true, the subject may modify the sound level using the joystick. The level argument is ignored unless the MCL has not yet been set, in which case it is used as the initial level.",
          "default": false
        },
        "MaxResponseTime": {
          "type": "number",
          "description": "Maximum time, in seconds, to wait for a subject response.",
          "default": 8
        }
      }
    }
  }
}