{
   "title":"A Brief Example of Questionnaire Attributes",
   "pages":[
      {
         "id":"question1",
         "questionMainText":"What is your age?",
         "responseArea":{
            "type":"integerResponseArea"
         },
         "followOns":[
            {
               "conditional":"result.response>=21",
               "target":{
                  "id":"question1a",
                  "questionMainText":"Do you like to have beer or wine with your evening meal?",
                  "responseArea":{
                     "type":"yesNoResponseArea"
                  }
               }
            }
         ]
      },
      {
         "id":"question2",
         "questionMainText":"What is your favorite color?",
         "responseArea":{
            "type":"multipleChoiceResponseArea",
            "choices":[
               {
                  "id":"Red"
               },
               {
                  "id":"Green"
               },
               {
                  "id":"Blue"
               }
            ]
         },
         "setFlags":[
            {
               "conditional":"result.response=='Red'",
               "id":"likesRed"
            }
         ]
      },
      {
         "id":"question3",
         "questionMainText":"How frequently do you read for pleasure?",
         "responseArea":{
            "type":"likertResponseArea",
            "levels":5,
            "specifiers":[
               {
                  "level":0,
                  "label":"Never"
               },
               {
                  "level":2,
                  "label":"Occassionally"
               },
               {
                  "level":4,
                  "label":"Every day"
               }
            ]
         },
         "followOns":[
            {
               "conditional":"result.response>=2",
               "target":{
                  "reference":"reader"
               }
            }
         ]
      },
      {
         "id":"question4",
         "skipIf":"flags.likesRed",
         "questionMainText":"Do you dislike the color red?",
         "responseArea":{
            "type":"yesNoResponseArea"
         }
      }
   ],
   "subProtocols":[
      {
         "protocolId":"reader",
         "title":"Reader Survey",
         "pages":[
            {
               "id":"questionR1",
               "questionMainText":"What type of reading do you enjoy?",
               "responseArea":{
                  "type":"checkboxResponseArea",
                  "choices":[
                     {
                        "id":"Novels"
                     },
                     {
                        "id":"Biography"
                     },
                     {
                        "id":"Nonfiction"
                     },
                     {
                        "id":"News"
                     }
                  ],
                "other":"Other"
               }
            }
         ]
      }
   ]
}